{
  "c2dictionary": true,
  "data": {
    "GoblinHP": 1,
    "GoblinSpeed": 2,
    "GoblinDamage": 3,
    
    "GoblinMageHP": 10,
    "GoblinMageSpeed": 20,
    "GoblinMageDamage": 20,
        
    "GoblinOgreHP": 10,
    "GoblinOgreSpeed": 20,
    "GoblinOgreDamage": 20,

    "TurretKnightHP": 300,
    "TurretKnightRange": 300,
    "TurretKnightRateOfFire": 1,
    "TurretKnightProjectileSpeed": 500,
    "BulletSwordDamage": 5,

    "TurretMageHP": 300,
    "TurretMageRange": 300,
    "TurretMageRateOfFire": 1,
    "TurretMageProjectileSpeed": 500,
    "BulletFireballDamage": 5,
    "BulletFireballAreaOfEffect": 5,

    "TurretGlueHP": 300,
    "TurretGlueRange": 300,
    "TurretGlueRateOfFire": 1,
    "TurretGlueProjectileSpeed": 500,
    "BulletGlueDamage": 5
  }
}